[0KRunning with gitlab-runner 15.0.0 (febb2a09)[0;m
[0K  on wf-native-xci32-docker-low js7NQrg_[0;m
section_start:1655734846:resolve_secrets[0K[0K[36;1mResolving secrets[0;m[0;m
section_end:1655734846:resolve_secrets[0Ksection_start:1655734846:prepare_executor[0K[0K[36;1mPreparing the "docker" executor[0;m[0;m
[0KUsing Docker executor with image quay.io/cki/python:20220614.1 ...[0;m
[0KAuthenticating with credentials from job payload (GitLab Registry)[0;m
[0KPulling docker image quay.io/cki/python:20220614.1 ...[0;m
[0KUsing docker image sha256:3855f7159fe47f2daae3fee29832b49b0864788757e339a484a1bb9565d115c7 for quay.io/cki/python:20220614.1 with digest quay.io/cki/python@sha256:cdd3a64a0163a2558061e84b1229bd553354cfbc1a5dc412b285c0ffee02f1aa ...[0;m
section_end:1655734849:prepare_executor[0Ksection_start:1655734849:prepare_script[0K[0K[36;1mPreparing environment[0;m[0;m
Running on runner-js7nqrg-project-18194050-concurrent-2 via xci32.lab.eng.rdu2.redhat.com...
section_end:1655734849:prepare_script[0Ksection_start:1655734849:get_sources[0K[0K[36;1mGetting source from Git repository[0;m[0;m
[32;1mSkipping Git repository setup[0;m
[32;1mSkipping Git checkout[0;m
[32;1mSkipping Git submodules setup[0;m
section_end:1655734850:get_sources[0Ksection_start:1655734850:download_artifacts[0K[0K[36;1mDownloading artifacts[0;m[0;m
[32;1mDownloading artifacts for prepare python (2612657254)...[0;m
Downloading artifacts from coordinator... ok      [0;m  id[0;m=2612657254 responseStatus[0;m=200 OK token[0;m=x1r9a-e-
[32;1mDownloading artifacts for setup x86_64 (2612657325)...[0;m
[31;1mERROR: Downloading artifacts from coordinator... forbidden[0;m  [31;1mid[0;m=2612657325 [31;1mresponseStatus[0;m=403 Forbidden [31;1mstatus[0;m=GET https://gitlab.com/api/v4/jobs/2612657325/artifacts: 403 Forbidden [31;1mtoken[0;m=x1r9a-e-
[31;1mFATAL: permission denied                          [0;m 
section_end:1655734852:download_artifacts[0Ksection_start:1655734852:upload_artifacts_on_failure[0K[0K[36;1mUploading artifacts for failed job[0;m[0;m
[32;1mUploading artifacts...[0;m
[0;33mWARNING: rc: no matching files                    [0;m 
artifacts: found 2 matching files and directories [0;m 
artifacts-meta.json: found 1 matching files and directories[0;m 
[0;33mWARNING: kcidb_all.json: no matching files        [0;m 
Uploading artifacts as "archive" to coordinator... 201 Created[0;m  id[0;m=2612657346 responseStatus[0;m=201 Created token[0;m=x1r9a-e-
section_end:1655734859:upload_artifacts_on_failure[0Ksection_start:1655734859:cleanup_file_variables[0K[0K[36;1mCleaning up project directory and file based variables[0;m[0;m
section_end:1655734859:cleanup_file_variables[0K[31;1mERROR: Job failed: exit code 1
[0;m
