{
  "$schema": "https://docs.renovatebot.com/renovate-schema.json",
  "enabledManagers": ["custom.regex"],
  "customManagers": [
    {
      "customType": "regex",
      "fileMatch": ["^builds/.*$"],
      "matchStrings": ["datasource=(?<datasource>.*?) depName=(?<depName>.*?)( versioning=(?<versioning>.*?))?\\s*\\*/\\sARG .*?_VERSION=(?<currentValue>.*)\\s"],
      "versioningTemplate": "{{#if versioning}}{{{versioning}}}{{else}}semver{{/if}}"
    }
  ],
  "prBodyNotes": ["All Renovate MRs are tracked by #152."]
}
